dump.vcd
$date
Fri Jul 21 00:35:38 2023
$end
$version
Riviera-PRO Version 2022.04.117.8517
$end
$timescale
1 ns
$end

$scope module tb $end

$scope module fif $end
$var reg 1 ! clock $end
$var reg 1 " rd $end
$var reg 1 # wr $end
$var reg 1 $ full $end
$var reg 1 % empty $end
$var reg 8 & data_in [7:0] $end
$var reg 8 ' data_out [7:0] $end
$var reg 1 ( rst $end
$upscope $end


$scope module dut $end
$var wire 1 ) clock $end
$var wire 1 * rd $end
$var wire 1 + wr $end
$var wire 1 , full $end
$var wire 1 - empty $end
$var wire 8 . data_in [7:0] $end
$var wire 1 / rst $end
$var reg 8 0 data_out [7:0] $end
$var reg 5 1 wr_ptr [4:0] $end
$var reg 5 2 rd_ptr [4:0] $end
$upscope $end

$upscope $end

$enddefinitions $end
$dumpvars
0!
0"
0#
x$
x%
b0 &
bx '
1(
0)
0*
0+
x,
x-
b0 .
1/
bx 0
bx 1
bx 2
$end
#10
1!
1)
b0 0
b0 2
b0 1
b0 '
0,
0$
1-
1%
#20
0!
0)
#30
1!
1)
#40
0!
0)
#50
1!
1)
#60
0!
0)
#70
1!
1)
#80
0!
0)
#90
1!
1)
0(
1#
b11100111 &
b11100111 .
1+
0/
#100
0!
0)
#110
1!
1)
b1 1
0-
0%
#120
0!
0)
#130
1!
1)
b10 1
b11100010 &
b11100010 .
#140
0!
0)
#150
1!
1)
b11 1
#160
0!
0)
#170
1!
1)
b100 1
b1011101 &
b1011101 .
#180
0!
0)
#190
1!
1)
b101 1
#200
0!
0)
#210
1!
1)
b110 1
b11011010 &
b11011010 .
#220
0!
0)
#230
1!
1)
b111 1
#240
0!
0)
#250
1!
1)
b1000 1
b10000111 &
b10000111 .
#260
0!
0)
#270
1!
1)
b1001 1
#280
0!
0)
#290
1!
1)
b1010 1
b111010 &
b111010 .
#300
0!
0)
#310
1!
1)
b1011 1
#320
0!
0)
#330
1!
1)
b1100 1
b1011001 &
b1011001 .
#340
0!
0)
#350
1!
1)
b1101 1
#360
0!
0)
#370
1!
1)
b1110 1
b1101011 &
b1101011 .
#380
0!
0)
#390
1!
1)
b1111 1
#400
0!
0)
#410
1!
1)
b10000 1
b1101001 &
b1101001 .
#420
0!
0)
#430
1!
1)
b10001 1
#440
0!
0)
#450
1!
1)
b10010 1
b1111101 &
b1111101 .
#460
0!
0)
#470
1!
1)
b10011 1
#480
0!
0)
#490
1!
1)
b10100 1
b110110 &
b110110 .
#500
0!
0)
#510
1!
1)
b10101 1
#520
0!
0)
#530
1!
1)
b10110 1
b11100010 &
b11100010 .
#540
0!
0)
#550
1!
1)
b10111 1
#560
0!
0)
#570
1!
1)
b11000 1
b111010 &
b111010 .
#580
0!
0)
#590
1!
1)
b11001 1
#600
0!
0)
#610
1!
1)
b11010 1
b1 &
b1 .
#620
0!
0)
#630
1!
1)
b11011 1
#640
0!
0)
#650
1!
1)
b11100 1
b10110 &
b10110 .
#660
0!
0)
#670
1!
1)
b11101 1
#680
0!
0)
#690
1!
1)
b11110 1
b1001010 &
b1001010 .
#700
0!
0)
#710
1!
1)
b11111 1
1,
1$
#720
0!
0)
#730
1!
1)
b110001 &
b110001 .
#740
0!
0)
#750
1!
1)
#760
0!
0)
#770
1!
1)
b1110110 &
b1110110 .
#780
0!
0)
#790
1!
1)
#800
0!
0)
#810
1!
1)
b10001101 &
b10001101 .
#820
0!
0)
#830
1!
1)
#840
0!
0)
#850
1!
1)
b10110 &
b10110 .
